Bayesian Model Examples
…
(load("data/ReaganApproval.rda"))
#> [1] "ReaganApproval"
ReaganApproval
#> # A tibble: 96 x 3
#>     app  infl unemp
#>   <dbl> <dbl> <dbl>
#> 1    51 11.79   7.5
#> 2    55 11.39   7.4
#> 3    60 10.61   7.4
#> 4    67 10.14   7.2
#> 5    68  9.79   7.5
#> 6    59  9.70   7.5
#> # ... with 90 more rows
…
