Bayesian Model Examples
…
data("ReaganApproval", package = "bayesjackman")
ReaganApproval
#> # A tibble: 96 x 3
#>     app  infl unemp
#>   <dbl> <dbl> <dbl>
#> 1   51. 11.8   7.50
#> 2   55. 11.4   7.40
#> 3   60. 10.6   7.40
#> 4   67. 10.1   7.20
#> 5   68.  9.79  7.50
#> 6   59.  9.70  7.50
#> # ... with 90 more rows
…
